6,490
7,1349
12,2735
18,722
70,8435
74,1826
86,573
98,913
113,540
117,6102
121,1602
136,6705
145,1438
164,727
173,3706
174,999
177,677
191,10162
205,392
206,1552
212,2121
231,2984
272,356
286,1896
302,4406
311,3709
313,314
336,354
369,3253
389,4914
404,2976
411,17522
420,1007
432,3779
436,635
450,383
454,687
471,1251
516,344
519,1660
529,809
543,2872
561,11637
562,578
613,507
624,625
647,549
660,827
671,448
681,991
686,1082
688,484
692,27598
699,2201
725,3389
727,2439
748,2315
765,1882
792,2164
838,327
846,5738
853,831
875,351
886,506
894,1221
903,405
914,8554
916,4437
927,335
932,1042
939,1491
951,372
960,901
966,3820
975,344
977,505
1017,4103
1021,1897
1023,1551
1027,478
1044,1412
1057,360
1085,338
1107,1055
1119,19160
1140,2237
1171,607
1182,657
1201,2470
1202,1026
1215,1157
1230,661
1242,317
1254,3731
1277,704
1284,811
1291,13182
1317,1218
1335,378
1338,2469
1350,568
1351,309
1375,1748
1377,4110
1379,6787
1407,5590
1415,8751
1429,354
1449,602
1468,15632
1483,1924
1496,1612
1503,970
1507,392
1508,1680
1512,587
1530,5478
1566,10526
1580,404
1596,3777
1599,511
1605,7625
1621,699
1622,2722
1635,854
1671,607
1672,560
1714,2333
1716,2167
1728,2679
1746,326
1749,3923
1781,2264
1790,847
1819,1366
1827,3881
1841,1078
1842,453
1847,420
1871,430
1894,732
1904,1061
1910,493
1918,11343
1925,332
1930,772
1931,681
1940,1784
1950,4401
1957,580
1962,903
1966,488
1970,577
1991,643
1998,531
2013,3674
2031,5993
2044,562
2047,659
2048,1451
2050,1937
2054,1094
2066,556
2068,616
2112,900
2118,4373
2154,374
2169,500
2196,371
2197,500
2201,1134
2205,1068
2216,580
